<svg version="1.1" id="Layer_1" xmlns="http://www.w3.org/2000/svg" xmlns:xlink="http://www.w3.org/1999/xlink" x="0px" y="0px"
	 viewBox="0 0 73.329216 247.9778748" style="enable-background:new 0 0 73.329216 247.9778748;" xml:space="preserve" preserveAspectRatio="xMinYMax slice">
<style type="text/css">
	.st0{fill:url(#);stroke:#9BF7CC;stroke-miterlimit:10;}
	.st1{fill:#9BF7CC;}
	.st2{fill:none;}
</style>
<g>
	<g>
		<g transform="translate(8 -54.5)">
			<g transform="translate(-8 54.5)">
				<g transform="translate(0 0.5)">
					<g>
						<path class="st1" d="M73.3284225,8.4896412c-9.2753906,0-13.984375-2.0527344-18.5385742-4.0371094
							c-4.6630859-2.0322263-9.0673828-3.9521482-18.1235352-3.9521482c-9.0566406,0-13.4594727,1.9199219-18.1210938,3.9521482
							c-4.5522461,1.984375-9.2592773,4.0371094-18.5317383,4.0371094v-1c9.0639648,0,13.6738281-2.0097656,18.1318359-3.9541013
							c4.5507812-1.9833986,9.2558594-4.0351562,18.5209961-4.0351562c9.2646484,0,13.9711914,2.0517578,18.5229492,4.0351562
							c4.4604492,1.9443357,9.0722656,3.9541013,18.1391602,3.9541013V8.4896412z"/>
					</g>
				</g>
				<g transform="translate(0 6.6)">
					<g>
						<path class="st1" d="M73.3284225,8.4902277c-9.2753906,0-13.984375-2.0527349-18.5385742-4.0380864
							c-4.6630859-2.0322266-9.0673828-3.9521484-18.1235352-3.9521484S23.2092819,2.4199147,18.549614,4.4521413
							C13.9983444,6.4374928,9.2922897,8.4902277,0.0173879,8.4902277V7.4902272
							c9.0664062,0,13.675293-2.0107422,18.1323242-3.9541016c4.5483398-1.9843749,9.2519531-4.0361328,18.5166016-4.0361328
							s13.9711914,2.0517578,18.5229492,4.0351562c4.4604492,1.9443359,9.0722656,3.9550781,18.1391602,3.9550781V8.4902277z"/>
					</g>
				</g>
				<g transform="translate(0 12.7)">
					<g>
						<path class="st1" d="M73.3293991,8.4898367c-9.2753906,0-13.9848633-2.0527344-18.5390625-4.0380859
							c-4.6630859-2.0322266-9.0673828-3.9521484-18.1230469-3.9521484c-9.0561523,0-13.4570312,1.9199219-18.1162109,3.9521484
							C14.0002975,6.4371023,9.2942429,8.4898367,0.019341,8.4898367v-1c9.0664062,0,13.6748047-2.0107422,18.1318359-3.9541016
							c4.5483398-1.984375,9.2514648-4.0361328,18.5161133-4.0361328c9.2641602,0,13.9707031,2.0517578,18.5224609,4.0351562
							c4.4604492,1.9443359,9.0727539,3.9550781,18.1396484,3.9550781V8.4898367z"/>
					</g>
				</g>
				<g transform="translate(0 18.81)">
					<g>
						<path class="st1" d="M73.3230515,8.4901896c-9.2749023,0-13.984375-2.0527349-18.5385742-4.0380864
							c-4.6630859-2.0322263-9.0673828-3.9521482-18.1230469-3.9521482c-9.0566406,0-13.4584961,1.919922-18.1186523,3.9521482
							C13.9919968,6.4374547,9.2859421,8.4901896,0.0134816,8.4901896V7.4901891
							c9.0639648,0,13.6723633-2.0097656,18.1293945-3.9541013c4.5493164-1.9843751,9.253418-4.0361328,18.5185547-4.0361328
							c9.2641602,0,13.9711914,2.0517578,18.5224609,4.0351562c4.4604492,1.9443357,9.0727539,3.9550779,18.1391602,3.9550779
							V8.4901896z"/>
					</g>
				</g>
				<g transform="translate(0 24.91)">
					<g>
						<path class="st1" d="M73.3230515,8.4897976c-9.2749023,0-13.984375-2.0527344-18.5385742-4.0380859
							c-4.6630859-2.0322266-9.0673828-3.9521484-18.1230469-3.9521484c-9.0566406,0-13.4584961,1.9199219-18.1186523,3.9521484
							C13.9919968,6.4370632,9.2859421,8.4897976,0.0134816,8.4897976v-1c9.0639648,0,13.6723633-2.0097656,18.1293945-3.9541016
							c4.5493164-1.984375,9.253418-4.0361328,18.5185547-4.0361328c9.2641602,0,13.9711914,2.0517578,18.5224609,4.0351562
							c4.4604492,1.9443359,9.0727539,3.9550781,18.1391602,3.9550781V8.4897976z"/>
					</g>
				</g>
			</g>
			<g transform="translate(-8 84.5)">
				<g transform="translate(0 0.5)">
					<g>
						<path class="st1" d="M73.3284225,8.4896412c-9.2753906,0-13.984375-2.0527344-18.5385742-4.0371094
							c-4.6630859-2.0322263-9.0673828-3.9521482-18.1235352-3.9521482c-9.0566406,0-13.4594727,1.9199219-18.1210938,3.9521482
							c-4.5522461,1.984375-9.2592773,4.0371094-18.5317383,4.0371094v-1c9.0639648,0,13.6738281-2.0097656,18.1318359-3.9541013
							c4.5507812-1.9833986,9.2558594-4.0351562,18.5209961-4.0351562c9.2646484,0,13.9711914,2.0517578,18.5229492,4.0351562
							c4.4604492,1.9443357,9.0722656,3.9541013,18.1391602,3.9541013V8.4896412z"/>
					</g>
				</g>
				<g transform="translate(0 6.6)">
					<g>
						<path class="st1" d="M73.3284225,8.4902277c-9.2753906,0-13.984375-2.0527349-18.5385742-4.0380864
							c-4.6630859-2.0322266-9.0673828-3.9521484-18.1235352-3.9521484S23.2092819,2.4199147,18.549614,4.4521413
							C13.9983444,6.4374928,9.2922897,8.4902277,0.0173879,8.4902277V7.4902272
							c9.0664062,0,13.675293-2.0107422,18.1323242-3.9541016c4.5483398-1.9843749,9.2519531-4.0361328,18.5166016-4.0361328
							s13.9711914,2.0517578,18.5229492,4.0351562c4.4604492,1.9443359,9.0722656,3.9550781,18.1391602,3.9550781V8.4902277z"/>
					</g>
				</g>
				<g transform="translate(0 12.7)">
					<g>
						<path class="st1" d="M73.3293991,8.4898367c-9.2753906,0-13.9848633-2.0527344-18.5390625-4.0380859
							c-4.6630859-2.0322266-9.0673828-3.9521484-18.1230469-3.9521484c-9.0561523,0-13.4570312,1.9199219-18.1162109,3.9521484
							C14.0002975,6.4371023,9.2942429,8.4898367,0.019341,8.4898367v-1c9.0664062,0,13.6748047-2.0107422,18.1318359-3.9541016
							c4.5483398-1.984375,9.2514648-4.0361328,18.5161133-4.0361328c9.2641602,0,13.9707031,2.0517578,18.5224609,4.0351562
							c4.4604492,1.9443359,9.0727539,3.9550781,18.1396484,3.9550781V8.4898367z"/>
					</g>
				</g>
				<g transform="translate(0 18.81)">
					<g>
						<path class="st1" d="M73.3230515,8.4901896c-9.2749023,0-13.984375-2.0527349-18.5385742-4.0380864
							c-4.6630859-2.0322263-9.0673828-3.9521482-18.1230469-3.9521482c-9.0566406,0-13.4584961,1.919922-18.1186523,3.9521482
							C13.9919968,6.4374547,9.2859421,8.4901896,0.0134816,8.4901896V7.4901891
							c9.0639648,0,13.6723633-2.0097656,18.1293945-3.9541013c4.5493164-1.9843751,9.253418-4.0361328,18.5185547-4.0361328
							c9.2641602,0,13.9711914,2.0517578,18.5224609,4.0351562c4.4604492,1.9443357,9.0727539,3.9550779,18.1391602,3.9550779
							V8.4901896z"/>
					</g>
				</g>
				<g transform="translate(0 24.91)">
					<g>
						<path class="st1" d="M73.3230515,8.4897976c-9.2749023,0-13.984375-2.0527344-18.5385742-4.0380859
							c-4.6630859-2.0322266-9.0673828-3.9521484-18.1230469-3.9521484c-9.0566406,0-13.4584961,1.9199219-18.1186523,3.9521484
							C13.9919968,6.4370632,9.2859421,8.4897976,0.0134816,8.4897976v-1c9.0639648,0,13.6723633-2.0097656,18.1293945-3.9541016
							c4.5493164-1.984375,9.253418-4.0361328,18.5185547-4.0361328c9.2641602,0,13.9711914,2.0517578,18.5224609,4.0351562
							c4.4604492,1.9443359,9.0727539,3.9550781,18.1391602,3.9550781V8.4897976z"/>
					</g>
				</g>
			</g>
		</g>
	</g>
	<g>
		<rect y="0.0006134" class="st2" width="73.3220367" height="63.4013557"/>
	</g>
	<g>
		<g transform="translate(8 -54.5)">
			<g transform="translate(-8 54.5)">
				<g transform="translate(0 0.5)">
					<g>
						<path class="st1" d="M73.3284225,68.9476471c-9.2753906,0-13.984375-2.0527344-18.5385742-4.0380859
							c-4.6630859-2.0322227-9.0673828-3.9521446-18.1235352-3.9521446c-9.0566406,0-13.4594727,1.9199219-18.1210938,3.9531212
							c-4.5522461,1.984375-9.2592773,4.0371094-18.5317383,4.0371094v-1c9.0639648,0,13.6738281-2.0097656,18.1318359-3.9540977
							c4.5507812-1.984375,9.2558594-4.0361328,18.5209961-4.0361328c9.2646484,0,13.9711914,2.0517578,18.5229492,4.0351562
							c4.4604492,1.9443321,9.0722656,3.9550743,18.1391602,3.9550743V68.9476471z"/>
					</g>
				</g>
				<g transform="translate(0 6.6)">
					<g>
						<path class="st1" d="M73.3284225,68.947258c-9.2753906,0-13.984375-2.0527344-18.5385742-4.0380859
							c-4.6630859-2.0322266-9.0673828-3.9521484-18.1235352-3.9521484s-13.4570312,1.9199219-18.1166992,3.9521484
							c-4.5512695,1.9853516-9.2573242,4.0380859-18.5322266,4.0380859v-1c9.0664062,0,13.675293-2.0107422,18.1323242-3.9541016
							c4.5483398-1.984375,9.2519531-4.0361328,18.5166016-4.0361328s13.9711914,2.0517578,18.5229492,4.0351562
							c4.4604492,1.9443359,9.0722656,3.9550781,18.1391602,3.9550781V68.947258z"/>
					</g>
				</g>
				<g transform="translate(0 12.7)">
					<g>
						<path class="st1" d="M73.3293991,68.9478455c-9.2753906,0-13.9848633-2.0527344-18.5390625-4.0380859
							c-4.6630859-2.0322266-9.0673828-3.9521484-18.1230469-3.9521484c-9.0561523,0-13.4570312,1.9199219-18.1162109,3.9521484
							c-4.5507812,1.9853516-9.2568359,4.0380859-18.5317383,4.0380859v-1c9.0664062,0,13.6748047-2.0107422,18.1318359-3.9541016
							c4.5483398-1.984375,9.2514648-4.0361328,18.5161133-4.0361328c9.2641602,0,13.9707031,2.0517578,18.5224609,4.0351562
							c4.4604492,1.9443359,9.0727539,3.9550781,18.1396484,3.9550781V68.9478455z"/>
					</g>
				</g>
				<g transform="translate(0 18.81)">
					<g>
						<path class="st1" d="M73.3230515,68.9472198c-9.2749023,0-13.984375-2.0527344-18.5385742-4.0371094
							c-4.6630859-2.0322266-9.0673828-3.9521484-18.1230469-3.9521484c-9.0566406,0-13.4584961,1.9199219-18.1186523,3.9521484
							c-4.5507812,1.984375-9.2568359,4.0371094-18.5292969,4.0371094v-1c9.0639648,0,13.6728516-2.0097656,18.1293945-3.9541016
							c4.5493164-1.9833984,9.253418-4.0351562,18.5185547-4.0351562c9.2641602,0,13.9707031,2.0517578,18.5224609,4.0351562
							c4.4604492,1.9443359,9.0727539,3.9541016,18.1391602,3.9541016V68.9472198z"/>
					</g>
				</g>
				<g transform="translate(0 24.91)">
					<g>
						<path class="st1" d="M73.3230515,68.9478073c-9.2749023,0-13.984375-2.0527344-18.5385742-4.0380859
							c-4.6630859-2.0322266-9.0673828-3.9521484-18.1230469-3.9521484c-9.0566406,0-13.4584961,1.9199219-18.1186523,3.9521484
							c-4.5507812,1.9853516-9.2568359,4.0380859-18.5292969,4.0380859v-1c9.0639648,0,13.6723633-2.0097656,18.1293945-3.9541016
							c4.5493164-1.984375,9.253418-4.0361328,18.5185547-4.0361328c9.2641602,0,13.9711914,2.0517578,18.5224609,4.0351562
							c4.4604492,1.9443359,9.0727539,3.9550781,18.1391602,3.9550781V68.9478073z"/>
					</g>
				</g>
			</g>
			<g transform="translate(-8 84.5)">
				<g transform="translate(0 0.5)">
					<g>
						<path class="st1" d="M73.3284225,68.9476471c-9.2753906,0-13.984375-2.0527344-18.5385742-4.0380859
							c-4.6630859-2.0322227-9.0673828-3.9521446-18.1235352-3.9521446c-9.0566406,0-13.4594727,1.9199219-18.1210938,3.9531212
							c-4.5522461,1.984375-9.2592773,4.0371094-18.5317383,4.0371094v-1c9.0639648,0,13.6738281-2.0097656,18.1318359-3.9540977
							c4.5507812-1.984375,9.2558594-4.0361328,18.5209961-4.0361328c9.2646484,0,13.9711914,2.0517578,18.5229492,4.0351562
							c4.4604492,1.9443321,9.0722656,3.9550743,18.1391602,3.9550743V68.9476471z"/>
					</g>
				</g>
				<g transform="translate(0 6.6)">
					<g>
						<path class="st1" d="M73.3284225,68.947258c-9.2753906,0-13.984375-2.0527344-18.5385742-4.0380859
							c-4.6630859-2.0322266-9.0673828-3.9521484-18.1235352-3.9521484s-13.4570312,1.9199219-18.1166992,3.9521484
							c-4.5512695,1.9853516-9.2573242,4.0380859-18.5322266,4.0380859v-1c9.0664062,0,13.675293-2.0107422,18.1323242-3.9541016
							c4.5483398-1.984375,9.2519531-4.0361328,18.5166016-4.0361328s13.9711914,2.0517578,18.5229492,4.0351562
							c4.4604492,1.9443359,9.0722656,3.9550781,18.1391602,3.9550781V68.947258z"/>
					</g>
				</g>
				<g transform="translate(0 12.7)">
					<g>
						<path class="st1" d="M73.3293991,68.9478455c-9.2753906,0-13.9848633-2.0527344-18.5390625-4.0380859
							c-4.6630859-2.0322266-9.0673828-3.9521484-18.1230469-3.9521484c-9.0561523,0-13.4570312,1.9199219-18.1162109,3.9521484
							c-4.5507812,1.9853516-9.2568359,4.0380859-18.5317383,4.0380859v-1c9.0664062,0,13.6748047-2.0107422,18.1318359-3.9541016
							c4.5483398-1.984375,9.2514648-4.0361328,18.5161133-4.0361328c9.2641602,0,13.9707031,2.0517578,18.5224609,4.0351562
							c4.4604492,1.9443359,9.0727539,3.9550781,18.1396484,3.9550781V68.9478455z"/>
					</g>
				</g>
				<g transform="translate(0 18.81)">
					<g>
						<path class="st1" d="M73.3230515,68.9472198c-9.2749023,0-13.984375-2.0527344-18.5385742-4.0371094
							c-4.6630859-2.0322266-9.0673828-3.9521484-18.1230469-3.9521484c-9.0566406,0-13.4584961,1.9199219-18.1186523,3.9521484
							c-4.5507812,1.984375-9.2568359,4.0371094-18.5292969,4.0371094v-1c9.0639648,0,13.6728516-2.0097656,18.1293945-3.9541016
							c4.5493164-1.9833984,9.253418-4.0351562,18.5185547-4.0351562c9.2641602,0,13.9707031,2.0517578,18.5224609,4.0351562
							c4.4604492,1.9443359,9.0727539,3.9541016,18.1391602,3.9541016V68.9472198z"/>
					</g>
				</g>
				<g transform="translate(0 24.91)">
					<g>
						<path class="st1" d="M73.3230515,68.9478073c-9.2749023,0-13.984375-2.0527344-18.5385742-4.0380859
							c-4.6630859-2.0322266-9.0673828-3.9521484-18.1230469-3.9521484c-9.0566406,0-13.4584961,1.9199219-18.1186523,3.9521484
							c-4.5507812,1.9853516-9.2568359,4.0380859-18.5292969,4.0380859v-1c9.0639648,0,13.6723633-2.0097656,18.1293945-3.9541016
							c4.5493164-1.984375,9.253418-4.0361328,18.5185547-4.0361328c9.2641602,0,13.9711914,2.0517578,18.5224609,4.0351562
							c4.4604492,1.9443359,9.0727539,3.9550781,18.1391602,3.9550781V68.9478073z"/>
					</g>
				</g>
			</g>
		</g>
	</g>
	<g>
		<rect y="63.4581108" class="st2" width="73.3220367" height="63.4013557"/>
	</g>
	<g>
		<g transform="translate(8 -54.5)">
			<g transform="translate(-8 54.5)">
				<g transform="translate(0 0.5)">
					<g>
						<path class="st1" d="M73.3284225,129.6087799c-9.2753906,0-13.984375-2.0527344-18.5385742-4.0380859
							c-4.6630859-2.0322266-9.0673828-3.9521484-18.1235352-3.9521484c-9.0566406,0-13.4594727,1.9199219-18.1210938,3.953125
							c-4.5522461,1.984375-9.2592773,4.0371094-18.5317383,4.0371094v-1c9.0639648,0,13.6738281-2.0097656,18.1318359-3.9541016
							c4.5507812-1.984375,9.2558594-4.0361328,18.5209961-4.0361328c9.2646484,0,13.9711914,2.0517578,18.5229492,4.0351562
							c4.4604492,1.9443359,9.0722656,3.9550781,18.1391602,3.9550781V129.6087799z"/>
					</g>
				</g>
				<g transform="translate(0 6.6)">
					<g>
						<path class="st1" d="M73.3284225,129.6083984c-9.2753906,0-13.984375-2.052742-18.5385742-4.0380936
							c-4.6630859-2.0322266-9.0673828-3.9521484-18.1235352-3.9521484s-13.4570312,1.9199219-18.1166992,3.9521484
							c-4.5512695,1.9853516-9.2573242,4.0380936-18.5322266,4.0380936v-1c9.0664062,0,13.675293-2.0107498,18.1323242-3.9541092
							c4.5483398-1.984375,9.2519531-4.0361328,18.5166016-4.0361328s13.9711914,2.0517578,18.5229492,4.0351562
							c4.4604492,1.9443359,9.0722656,3.9550858,18.1391602,3.9550858V129.6083984z"/>
					</g>
				</g>
				<g transform="translate(0 12.7)">
					<g>
						<path class="st1" d="M73.3293991,129.6080017c-9.2753906,0-13.9848633-2.0527344-18.5390625-4.0371094
							c-4.6630859-2.0322266-9.0673828-3.9521484-18.1230469-3.9521484c-9.0561523,0-13.4570312,1.9199219-18.1162109,3.9521484
							c-4.5507812,1.984375-9.2568359,4.0371094-18.5317383,4.0371094v-1c9.0664062,0,13.6748047-2.0097656,18.1318359-3.9541016
							c4.5483398-1.9833984,9.2514648-4.0351562,18.5161133-4.0351562c9.2641602,0,13.9707031,2.0517578,18.5224609,4.0351562
							c4.4604492,1.9443359,9.0727539,3.9541016,18.1396484,3.9541016V129.6080017z"/>
					</g>
				</g>
				<g transform="translate(0 18.81)">
					<g>
						<path class="st1" d="M73.3230515,129.6083527c-9.2749023,0-13.984375-2.0527344-18.5385742-4.0380859
							c-4.6630859-2.0322266-9.0673828-3.9521484-18.1230469-3.9521484c-9.0566406,0-13.4584961,1.9199219-18.1186523,3.9521484
							c-4.5507812,1.9853516-9.2568359,4.0380859-18.5292969,4.0380859v-1c9.0639648,0,13.6723633-2.0097656,18.1293945-3.9541016
							c4.5493164-1.984375,9.253418-4.0361328,18.5185547-4.0361328c9.2641602,0,13.9711914,2.0517578,18.5224609,4.0351562
							c4.4604492,1.9443359,9.0727539,3.9550781,18.1391602,3.9550781V129.6083527z"/>
					</g>
				</g>
				<g transform="translate(0 24.91)">
					<g>
						<path class="st1" d="M73.3230515,129.6079559c-9.2749023,0-13.984375-2.0527267-18.5385742-4.0371017
							c-4.6630859-2.0322266-9.0673828-3.9521484-18.1230469-3.9521484c-9.0566406,0-13.4584961,1.9199219-18.1186523,3.9521484
							c-4.5507812,1.984375-9.2568359,4.0371017-18.5292969,4.0371017v-1c9.0639648,0,13.6728516-2.009758,18.1293945-3.9540939
							c4.5493164-1.9833984,9.253418-4.0351562,18.5185547-4.0351562c9.2641602,0,13.9707031,2.0517578,18.5224609,4.0351562
							c4.4604492,1.9443359,9.0727539,3.9540939,18.1391602,3.9540939V129.6079559z"/>
					</g>
				</g>
			</g>
			<g transform="translate(-8 84.5)">
				<g transform="translate(0 0.5)">
					<g>
						<path class="st1" d="M73.3284225,129.6087799c-9.2753906,0-13.984375-2.0527344-18.5385742-4.0380859
							c-4.6630859-2.0322266-9.0673828-3.9521484-18.1235352-3.9521484c-9.0566406,0-13.4594727,1.9199219-18.1210938,3.953125
							c-4.5522461,1.984375-9.2592773,4.0371094-18.5317383,4.0371094v-1c9.0639648,0,13.6738281-2.0097656,18.1318359-3.9541016
							c4.5507812-1.984375,9.2558594-4.0361328,18.5209961-4.0361328c9.2646484,0,13.9711914,2.0517578,18.5229492,4.0351562
							c4.4604492,1.9443359,9.0722656,3.9550781,18.1391602,3.9550781V129.6087799z"/>
					</g>
				</g>
				<g transform="translate(0 6.6)">
					<g>
						<path class="st1" d="M73.3284225,129.6083984c-9.2753906,0-13.984375-2.052742-18.5385742-4.0380936
							c-4.6630859-2.0322266-9.0673828-3.9521484-18.1235352-3.9521484s-13.4570312,1.9199219-18.1166992,3.9521484
							c-4.5512695,1.9853516-9.2573242,4.0380936-18.5322266,4.0380936v-1c9.0664062,0,13.675293-2.0107498,18.1323242-3.9541092
							c4.5483398-1.984375,9.2519531-4.0361328,18.5166016-4.0361328s13.9711914,2.0517578,18.5229492,4.0351562
							c4.4604492,1.9443359,9.0722656,3.9550858,18.1391602,3.9550858V129.6083984z"/>
					</g>
				</g>
				<g transform="translate(0 12.7)">
					<g>
						<path class="st1" d="M73.3293991,129.6080017c-9.2753906,0-13.9848633-2.0527344-18.5390625-4.0371094
							c-4.6630859-2.0322266-9.0673828-3.9521484-18.1230469-3.9521484c-9.0561523,0-13.4570312,1.9199219-18.1162109,3.9521484
							c-4.5507812,1.984375-9.2568359,4.0371094-18.5317383,4.0371094v-1c9.0664062,0,13.6748047-2.0097656,18.1318359-3.9541016
							c4.5483398-1.9833984,9.2514648-4.0351562,18.5161133-4.0351562c9.2641602,0,13.9707031,2.0517578,18.5224609,4.0351562
							c4.4604492,1.9443359,9.0727539,3.9541016,18.1396484,3.9541016V129.6080017z"/>
					</g>
				</g>
				<g transform="translate(0 18.81)">
					<g>
						<path class="st1" d="M73.3230515,129.6083527c-9.2749023,0-13.984375-2.0527344-18.5385742-4.0380859
							c-4.6630859-2.0322266-9.0673828-3.9521484-18.1230469-3.9521484c-9.0566406,0-13.4584961,1.9199219-18.1186523,3.9521484
							c-4.5507812,1.9853516-9.2568359,4.0380859-18.5292969,4.0380859v-1c9.0639648,0,13.6723633-2.0097656,18.1293945-3.9541016
							c4.5493164-1.984375,9.253418-4.0361328,18.5185547-4.0361328c9.2641602,0,13.9711914,2.0517578,18.5224609,4.0351562
							c4.4604492,1.9443359,9.0727539,3.9550781,18.1391602,3.9550781V129.6083527z"/>
					</g>
				</g>
				<g transform="translate(0 24.91)">
					<g>
						<path class="st1" d="M73.3230515,129.6079559c-9.2749023,0-13.984375-2.0527267-18.5385742-4.0371017
							c-4.6630859-2.0322266-9.0673828-3.9521484-18.1230469-3.9521484c-9.0566406,0-13.4584961,1.9199219-18.1186523,3.9521484
							c-4.5507812,1.984375-9.2568359,4.0371017-18.5292969,4.0371017v-1c9.0639648,0,13.6728516-2.009758,18.1293945-3.9540939
							c4.5493164-1.9833984,9.253418-4.0351562,18.5185547-4.0351562c9.2641602,0,13.9707031,2.0517578,18.5224609,4.0351562
							c4.4604492,1.9443359,9.0727539,3.9540939,18.1391602,3.9540939V129.6079559z"/>
					</g>
				</g>
			</g>
		</g>
	</g>
	<g>
		<rect y="121.1190109" class="st2" width="73.3220367" height="63.4013557"/>
	</g>
	<g>
		<g transform="translate(8 -54.5)">
			<g transform="translate(-8 54.5)">
				<g transform="translate(0 0.5)">
					<g>
						<path class="st1" d="M73.3284225,190.0658112c-9.2753906,0-13.984375-2.0527344-18.5385742-4.0380859
							c-4.6630859-2.0322266-9.0673828-3.9521484-18.1235352-3.9521484c-9.0566406,0-13.4594727,1.9199219-18.1210938,3.953125
							c-4.5522461,1.984375-9.2592773,4.0371094-18.5317383,4.0371094v-1c9.0639648,0,13.6738281-2.0097656,18.1318359-3.9541016
							c4.5507812-1.984375,9.2558594-4.0361328,18.5209961-4.0361328c9.2646484,0,13.9711914,2.0517578,18.5229492,4.0351562
							c4.4604492,1.9443359,9.0722656,3.9550781,18.1391602,3.9550781V190.0658112z"/>
					</g>
				</g>
				<g transform="translate(0 6.6)">
					<g>
						<path class="st1" d="M73.3284225,190.0654297c-9.2753906,0-13.984375-2.0527344-18.5385742-4.0371094
							c-4.6630859-2.0322266-9.0673828-3.9521484-18.1235352-3.9521484s-13.4575195,1.9199219-18.1166992,3.9521484
							c-4.5512695,1.984375-9.2573242,4.0371094-18.5322266,4.0371094v-1c9.0664062,0,13.675293-2.0097656,18.1323242-3.9541016
							c4.5483398-1.9833984,9.2519531-4.0351562,18.5166016-4.0351562s13.9711914,2.0517578,18.5229492,4.0351562
							c4.4604492,1.9443359,9.0722656,3.9541016,18.1391602,3.9541016V190.0654297z"/>
					</g>
				</g>
				<g transform="translate(0 12.7)">
					<g>
						<path class="st1" d="M73.3293991,190.0660095c-9.2753906,0-13.9848633-2.0527344-18.5390625-4.0380859
							c-4.6630859-2.0322266-9.0673828-3.9521484-18.1230469-3.9521484c-9.0561523,0-13.4570312,1.9199219-18.1162109,3.9521484
							c-4.5507812,1.9853516-9.2568359,4.0380859-18.5317383,4.0380859v-1c9.0664062,0,13.6748047-2.0107422,18.1318359-3.9541016
							c4.5483398-1.984375,9.2514648-4.0361328,18.5161133-4.0361328c9.2641602,0,13.9707031,2.0517578,18.5224609,4.0351562
							c4.4604492,1.9443359,9.0727539,3.9550781,18.1396484,3.9550781V190.0660095z"/>
					</g>
				</g>
				<g transform="translate(0 18.81)">
					<g>
						<path class="st1" d="M73.3230515,190.0663605c-9.2749023,0-13.984375-2.0527344-18.5385742-4.0380859
							c-4.6630859-2.0322266-9.0673828-3.9521484-18.1230469-3.9521484c-9.0566406,0-13.4584961,1.9199219-18.1186523,3.9521484
							c-4.5507812,1.9853516-9.2568359,4.0380859-18.5292969,4.0380859v-1c9.0639648,0,13.6723633-2.0097656,18.1293945-3.9541016
							c4.5493164-1.984375,9.253418-4.0361328,18.5185547-4.0361328c9.2641602,0,13.9711914,2.0517578,18.5224609,4.0351562
							c4.4604492,1.9443359,9.0727539,3.9550781,18.1391602,3.9550781V190.0663605z"/>
					</g>
				</g>
				<g transform="translate(0 24.91)">
					<g>
						<path class="st1" d="M73.3230515,190.0659637c-9.2749023,0-13.984375-2.0527344-18.5385742-4.0380859
							c-4.6630859-2.0322266-9.0673828-3.9521484-18.1230469-3.9521484c-9.0566406,0-13.4584961,1.9199219-18.1186523,3.9521484
							c-4.5507812,1.9853516-9.2568359,4.0380859-18.5292969,4.0380859v-1c9.0639648,0,13.6723633-2.0097656,18.1293945-3.9541016
							c4.5493164-1.984375,9.253418-4.0361328,18.5185547-4.0361328c9.2641602,0,13.9711914,2.0517578,18.5224609,4.0351562
							c4.4604492,1.9443359,9.0727539,3.9550781,18.1391602,3.9550781V190.0659637z"/>
					</g>
				</g>
			</g>
			<g transform="translate(-8 84.5)">
				<g transform="translate(0 0.5)">
					<g>
						<path class="st1" d="M73.3284225,190.0658112c-9.2753906,0-13.984375-2.0527344-18.5385742-4.0380859
							c-4.6630859-2.0322266-9.0673828-3.9521484-18.1235352-3.9521484c-9.0566406,0-13.4594727,1.9199219-18.1210938,3.953125
							c-4.5522461,1.984375-9.2592773,4.0371094-18.5317383,4.0371094v-1c9.0639648,0,13.6738281-2.0097656,18.1318359-3.9541016
							c4.5507812-1.984375,9.2558594-4.0361328,18.5209961-4.0361328c9.2646484,0,13.9711914,2.0517578,18.5229492,4.0351562
							c4.4604492,1.9443359,9.0722656,3.9550781,18.1391602,3.9550781V190.0658112z"/>
					</g>
				</g>
				<g transform="translate(0 6.6)">
					<g>
						<path class="st1" d="M73.3284225,190.0654297c-9.2753906,0-13.984375-2.0527344-18.5385742-4.0371094
							c-4.6630859-2.0322266-9.0673828-3.9521484-18.1235352-3.9521484s-13.4575195,1.9199219-18.1166992,3.9521484
							c-4.5512695,1.984375-9.2573242,4.0371094-18.5322266,4.0371094v-1c9.0664062,0,13.675293-2.0097656,18.1323242-3.9541016
							c4.5483398-1.9833984,9.2519531-4.0351562,18.5166016-4.0351562s13.9711914,2.0517578,18.5229492,4.0351562
							c4.4604492,1.9443359,9.0722656,3.9541016,18.1391602,3.9541016V190.0654297z"/>
					</g>
				</g>
				<g transform="translate(0 12.7)">
					<g>
						<path class="st1" d="M73.3293991,190.0660095c-9.2753906,0-13.9848633-2.0527344-18.5390625-4.0380859
							c-4.6630859-2.0322266-9.0673828-3.9521484-18.1230469-3.9521484c-9.0561523,0-13.4570312,1.9199219-18.1162109,3.9521484
							c-4.5507812,1.9853516-9.2568359,4.0380859-18.5317383,4.0380859v-1c9.0664062,0,13.6748047-2.0107422,18.1318359-3.9541016
							c4.5483398-1.984375,9.2514648-4.0361328,18.5161133-4.0361328c9.2641602,0,13.9707031,2.0517578,18.5224609,4.0351562
							c4.4604492,1.9443359,9.0727539,3.9550781,18.1396484,3.9550781V190.0660095z"/>
					</g>
				</g>
				<g transform="translate(0 18.81)">
					<g>
						<path class="st1" d="M73.3230515,190.0663605c-9.2749023,0-13.984375-2.0527344-18.5385742-4.0380859
							c-4.6630859-2.0322266-9.0673828-3.9521484-18.1230469-3.9521484c-9.0566406,0-13.4584961,1.9199219-18.1186523,3.9521484
							c-4.5507812,1.9853516-9.2568359,4.0380859-18.5292969,4.0380859v-1c9.0639648,0,13.6723633-2.0097656,18.1293945-3.9541016
							c4.5493164-1.984375,9.253418-4.0361328,18.5185547-4.0361328c9.2641602,0,13.9711914,2.0517578,18.5224609,4.0351562
							c4.4604492,1.9443359,9.0727539,3.9550781,18.1391602,3.9550781V190.0663605z"/>
					</g>
				</g>
				<g transform="translate(0 24.91)">
					<g>
						<path class="st1" d="M73.3230515,190.0659637c-9.2749023,0-13.984375-2.0527344-18.5385742-4.0380859
							c-4.6630859-2.0322266-9.0673828-3.9521484-18.1230469-3.9521484c-9.0566406,0-13.4584961,1.9199219-18.1186523,3.9521484
							c-4.5507812,1.9853516-9.2568359,4.0380859-18.5292969,4.0380859v-1c9.0639648,0,13.6723633-2.0097656,18.1293945-3.9541016
							c4.5493164-1.984375,9.253418-4.0361328,18.5185547-4.0361328c9.2641602,0,13.9711914,2.0517578,18.5224609,4.0351562
							c4.4604492,1.9443359,9.0727539,3.9550781,18.1391602,3.9550781V190.0659637z"/>
					</g>
				</g>
			</g>
		</g>
	</g>
	<g>
		<rect y="184.5765076" class="st2" width="73.3220367" height="63.4013557"/>
	</g>
</g>
</svg>
